{
  "IcoMoonType": "selection",
  "icons": [
    {
      "icon": {
        "paths": [
          "M325.818 738.909l-244.364-244.364-81.455 81.455 325.818 325.818 698.182-698.182-81.455-81.455z"
        ],
        "attrs": [
          {}
        ],
        "isMulticolor": false,
        "isMulticolor2": false,
        "grid": 0,
        "tags": [
          "check-symbol"
        ]
      },
      "attrs": [
        {}
      ],
      "properties": {
        "order": 83,
        "id": 0,
        "name": "check-symbol",
        "prevSize": 32,
        "code": 59659
      },
      "setIdx": 0,
      "setId": 6,
      "iconIdx": 0
    },
    {
      "icon": {
        "paths": [
          "M1100.506 306.023c-14.713-176.552-141.241-306.023-297.195-306.023-105.931 0-200.092 55.908-253.057 147.126-52.966-91.218-144.184-147.126-247.172-147.126-158.897 0-285.425 129.471-300.138 306.023 0 8.828-5.885 50.023 8.828 114.759 23.54 97.103 76.506 185.379 153.011 256l385.471 347.218 388.414-347.218c76.506-70.621 129.471-158.897 153.011-256 14.713-64.736 8.828-105.931 8.828-114.759z"
        ],
        "width": 1103,
        "attrs": [
          {}
        ],
        "isMulticolor": false,
        "isMulticolor2": false,
        "tags": [
          "corazon"
        ],
        "grid": 0
      },
      "attrs": [
        {}
      ],
      "properties": {
        "order": 2,
        "id": 0,
        "name": "corazon",
        "prevSize": 32,
        "code": 59658
      },
      "setIdx": 1,
      "setId": 5,
      "iconIdx": 0
    },
    {
      "icon": {
        "paths": [
          "M0 0l744.727 512-744.727 512z"
        ],
        "width": 745,
        "attrs": [
          {}
        ],
        "isMulticolor": false,
        "isMulticolor2": false,
        "tags": [
          "icon-triangulo"
        ],
        "grid": 0
      },
      "attrs": [
        {}
      ],
      "properties": {
        "order": 59,
        "id": 1,
        "name": "icon-triangulo",
        "prevSize": 32,
        "code": 59657
      },
      "setIdx": 1,
      "setId": 5,
      "iconIdx": 1
    },
    {
      "icon": {
        "paths": [
          "M1100.8 1024l-1100.8-857.6 76.8-89.6 1024 780.8 947.2-857.6 76.8 89.6z"
        ],
        "width": 2125,
        "attrs": [
          {}
        ],
        "isMulticolor": false,
        "isMulticolor2": false,
        "tags": [
          "icon-down"
        ],
        "grid": 0
      },
      "attrs": [
        {}
      ],
      "properties": {
        "order": 58,
        "id": 2,
        "name": "icon-down",
        "prevSize": 32,
        "code": 59656
      },
      "setIdx": 1,
      "setId": 5,
      "iconIdx": 2
    },
    {
      "icon": {
        "paths": [
          "M768 348.16c0 84.831-68.769 153.6-153.6 153.6s-153.6-68.769-153.6-153.6c0-84.831 68.769-153.6 153.6-153.6s153.6 68.769 153.6 153.6zM337.92 194.56c0 79.176-64.184 143.36-143.36 143.36s-143.36-64.184-143.36-143.36c0-79.176 64.184-143.36 143.36-143.36s143.36 64.184 143.36 143.36zM1075.2 778.24c0 113.108-91.692 204.8-204.8 204.8s-204.8-91.692-204.8-204.8c0-113.108 91.692-204.8 204.8-204.8s204.8 91.692 204.8 204.8z"
        ],
        "width": 1126,
        "attrs": [
          {}
        ],
        "isMulticolor": false,
        "isMulticolor2": false,
        "defaultCode": 58880,
        "grid": 0
      },
      "attrs": [
        {}
      ],
      "properties": {
        "id": 3,
        "order": 46,
        "prevSize": 32,
        "code": 58894,
        "name": "staff"
      },
      "setIdx": 1,
      "setId": 5,
      "iconIdx": 3
    },
    {
      "icon": {
        "paths": [
          "M0 810.666c0 47.146 38.186 85.334 85.334 85.334h853.334c47.146 0 85.334-38.186 85.334-85.334l-0.002-576c0-47.146-38.186-85.334-85.334-85.334l-853.332 0.002c-47.146 0-85.334 38.186-85.334 85.334v575.998zM314.026 523.306l-195.2-196.48c-16.192-16.214-16.192-42.454 0-58.666 16.234-16.214 42.474-16.214 58.666 0l311.468 311.872c12.586 12.374 33.302 12.374 45.674 0l311.872-311.872c16.214-16.214 42.454-16.214 58.666 0 16.214 16.214 16.214 42.454 0 58.666l-195.414 196.48 195.414 195.178c16.214 16.214 16.214 42.454 0 58.666s-42.454 16.214-58.666 0l-195.2-194.986c0 0-60.992 62.080-72.086 73.174-17.3 16.876-41.194 27.328-67.22 27.328-26.454 0-50.346-10.666-67.626-27.968-11.306-11.094-71.894-72.512-71.894-72.512l-195.008 194.986c-16.192 16.214-42.432 16.214-58.666 0-16.192-16.214-16.192-42.454 0-58.666l195.22-195.2z"
        ],
        "attrs": [
          {}
        ],
        "isMulticolor": false,
        "isMulticolor2": false,
        "tags": [
          "envelope",
          "letter",
          "email",
          "mail"
        ],
        "grid": 48
      },
      "attrs": [
        {}
      ],
      "properties": {
        "order": 49,
        "id": 0,
        "prevSize": 24,
        "code": 58909,
        "name": "envelope"
      },
      "setIdx": 2,
      "setId": 4,
      "iconIdx": 0
    },
    {
      "icon": {
        "paths": [
          "M810.667 170.667q18.333 0 30.5 12.167t12.167 30.5q0 18-12.333 30.333l-268.667 268.333 268.667 268.333q12.333 12.333 12.333 30.333 0 18.333-12.167 30.5t-30.5 12.167q-18 0-30.333-12.333l-268.333-268.667-268.333 268.667q-12.333 12.333-30.333 12.333-18.333 0-30.5-12.167t-12.167-30.5q0-18 12.333-30.333l268.667-268.333-268.667-268.333q-12.333-12.333-12.333-30.333 0-18.333 12.167-30.5t30.5-12.167q18 0 30.333 12.333l268.333 268.667 268.333-268.667q12.333-12.333 30.333-12.333z"
        ],
        "attrs": [
          {}
        ],
        "isMulticolor": false,
        "isMulticolor2": false,
        "tags": [
          "cross"
        ],
        "grid": 24
      },
      "attrs": [
        {}
      ],
      "properties": {
        "order": 54,
        "id": 0,
        "prevSize": 24,
        "code": 58885,
        "name": "close"
      },
      "setIdx": 3,
      "setId": 3,
      "iconIdx": 0
    },
    {
      "icon": {
        "paths": [
          "M554.667 426.667h128v128h-128v298.667h-128v-298.667h-128v-128h128v-53.547c0-50.731 15.957-114.816 47.701-149.845 31.744-35.115 71.381-52.608 118.869-52.608h89.429v128h-89.6c-21.248 0-38.4 17.152-38.4 38.357v89.643z"
        ],
        "attrs": [
          {}
        ],
        "isMulticolor": false,
        "isMulticolor2": false,
        "tags": [
          "social-facebook"
        ],
        "grid": 24
      },
      "attrs": [
        {}
      ],
      "properties": {
        "order": 55,
        "id": 1,
        "prevSize": 24,
        "code": 58883,
        "name": "social-facebook"
      },
      "setIdx": 3,
      "setId": 3,
      "iconIdx": 1
    },
    {
      "icon": {
        "paths": [
          "M805.973 299.179c34.475-21.163 57.301-50.048 68.48-86.784-33.536 17.792-66.944 29.995-100.309 36.736-29.995-32.256-67.968-48.64-113.493-48.64-44.501 0-82.091 15.616-112.768 45.995-30.507 30.592-45.909 67.755-45.909 111.147 0 13.184 1.664 24.96 4.992 34.944-131.243-4.48-239.872-58.923-325.461-163.712-14.507 25.643-21.76 51.755-21.76 78.763 0 55.509 23.424 99.499 70.187 131.797-26.667-2.261-50.176-9.003-70.187-20.053 0 39.637 11.648 72.747 34.987 101.888 23.424 28.843 53.504 47.232 90.24 55.083-13.312 3.413-27.349 5.035-41.771 5.035-13.312 0-22.741-1.109-28.331-3.541 9.813 32.299 28.331 58.496 55.083 78.549 26.667 20.139 57.344 30.763 91.819 31.701-56.832 44.587-121.813 66.645-195.328 66.645-18.005 0-30.763-0.256-38.485-1.621 72.405 47.019 153.003 70.357 242.176 70.357 91.264 0 171.904-23.125 242.091-69.376 70.187-45.995 121.984-102.741 155.264-169.557 33.451-66.731 50.005-136.192 50.005-208.725v-19.968c32.341-24.32 58.496-51.712 78.507-81.963-29.013 12.501-59.008 20.992-90.027 25.301z"
        ],
        "attrs": [
          {}
        ],
        "isMulticolor": false,
        "isMulticolor2": false,
        "tags": [
          "social-twitter"
        ],
        "grid": 24
      },
      "attrs": [
        {}
      ],
      "properties": {
        "order": 56,
        "id": 2,
        "prevSize": 24,
        "code": 58884,
        "name": "social-twitter"
      },
      "setIdx": 3,
      "setId": 3,
      "iconIdx": 2
    },
    {
      "icon": {
        "paths": [
          "M128 768h768v-85.333h-768v85.333zM128 554.667h768v-85.333h-768v85.333zM128 256v85.333h768v-85.333h-768z"
        ],
        "attrs": [
          {}
        ],
        "isMulticolor": false,
        "isMulticolor2": false,
        "tags": [
          "menu"
        ],
        "grid": 24
      },
      "attrs": [
        {}
      ],
      "properties": {
        "order": 57,
        "id": 3,
        "prevSize": 24,
        "code": 58882,
        "name": "menu"
      },
      "setIdx": 3,
      "setId": 3,
      "iconIdx": 3
    },
    {
      "icon": {
        "paths": [
          "M389.171 687.002c-13.722 13.875-13.722 36.301 0 50.125 13.67 13.875 35.891 13.875 49.613 0l196.096-200.038c13.722-13.875 13.722-36.301 0-50.125l-196.096-200.090c-13.722-13.875-35.891-13.875-49.613 0s-13.722 36.25-0.051 50.074l160.819 175.053-160.768 175.002z"
        ],
        "attrs": [
          {}
        ],
        "isMulticolor": false,
        "isMulticolor2": false,
        "tags": [
          "arrow-right",
          "right",
          "next"
        ],
        "grid": 20
      },
      "attrs": [
        {}
      ],
      "properties": {
        "order": 50,
        "id": 0,
        "prevSize": 20,
        "code": 58886,
        "name": "arrow-right"
      },
      "setIdx": 4,
      "setId": 2,
      "iconIdx": 0
    },
    {
      "icon": {
        "paths": [
          "M634.829 687.002c13.722 13.875 13.722 36.301 0 50.125-13.722 13.875-35.891 13.875-49.613 0l-196.096-200.038c-13.722-13.875-13.722-36.301 0-50.125l196.096-200.090c13.722-13.875 35.891-13.875 49.613 0s13.722 36.25 0 50.125l-160.768 175.002 160.768 175.002z"
        ],
        "attrs": [
          {}
        ],
        "isMulticolor": false,
        "isMulticolor2": false,
        "tags": [
          "arrow-left",
          "left",
          "previous"
        ],
        "grid": 20
      },
      "attrs": [
        {}
      ],
      "properties": {
        "order": 51,
        "id": 1,
        "prevSize": 20,
        "code": 58887,
        "name": "arrow-left"
      },
      "setIdx": 4,
      "setId": 2,
      "iconIdx": 1
    },
    {
      "icon": {
        "paths": [
          "M687.002 389.171c13.875-13.722 36.301-13.722 50.125 0 13.875 13.722 13.875 35.891 0 49.613l-200.038 196.096c-13.875 13.722-36.301 13.722-50.125 0l-200.090-196.096c-13.824-13.722-13.824-35.891 0-49.613 13.875-13.722 36.25-13.722 50.125 0l175.002 160.768 175.002-160.768z"
        ],
        "attrs": [
          {}
        ],
        "isMulticolor": false,
        "isMulticolor2": false,
        "tags": [
          "arrow-down",
          "down",
          "bottom"
        ],
        "grid": 20
      },
      "attrs": [
        {}
      ],
      "properties": {
        "order": 52,
        "id": 2,
        "prevSize": 20,
        "code": 58888,
        "name": "arrow-down"
      },
      "setIdx": 4,
      "setId": 2,
      "iconIdx": 2
    },
    {
      "icon": {
        "paths": [
          "M336.947 634.829c-13.875 13.722-36.25 13.722-50.125 0-13.824-13.722-13.875-35.891 0-49.664l200.090-195.994c13.875-13.722 36.301-13.722 50.125 0l200.090 196.045c13.875 13.773 13.875 35.942 0 49.664s-36.25 13.722-50.125 0l-175.053-160.819-175.002 160.768z"
        ],
        "attrs": [
          {}
        ],
        "isMulticolor": false,
        "isMulticolor2": false,
        "tags": [
          "arrow-up",
          "up",
          "top"
        ],
        "grid": 20
      },
      "attrs": [
        {}
      ],
      "properties": {
        "order": 53,
        "id": 3,
        "prevSize": 20,
        "code": 58889,
        "name": "arrow-up"
      },
      "setIdx": 4,
      "setId": 2,
      "iconIdx": 3
    },
    {
      "icon": {
        "paths": [
          "M1000.64 889.152l-184.896-184.896c50.688-72.576 80.64-160.704 80.64-255.936 0-247.424-200.64-448-448-448s-448 200.576-448 448c0 247.424 200.576 448 448 448 95.232 0 183.424-29.952 256-80.64l184.896 184.896c30.72 30.72 80.64 30.72 111.36 0s30.72-80.576 0-111.424zM448.32 768.384c-176.704 0-320-143.232-320-320s143.296-320 320-320c176.768 0 320 143.232 320 320 0.064 176.768-143.168 320-320 320z"
        ],
        "attrs": [
          {}
        ],
        "isMulticolor": false,
        "isMulticolor2": false,
        "tags": [
          "search",
          "magnifier"
        ],
        "grid": 16
      },
      "attrs": [
        {}
      ],
      "properties": {
        "order": 47,
        "id": 0,
        "prevSize": 16,
        "code": 58898,
        "name": "search"
      },
      "setIdx": 5,
      "setId": 1,
      "iconIdx": 0
    },
    {
      "icon": {
        "paths": [
          "M320 0c-177 0-320 143-320 320s160 416 320 704c160-288 320-527 320-704s-143-320-320-320zM320 448c-71 0-128-57-128-128s57-128 128-128 128 57 128 128-57 128-128 128z"
        ],
        "width": 640,
        "attrs": [
          {}
        ],
        "isMulticolor": false,
        "isMulticolor2": false,
        "tags": [
          "location"
        ],
        "grid": 16
      },
      "attrs": [
        {}
      ],
      "properties": {
        "order": 48,
        "id": 1,
        "prevSize": 16,
        "code": 58880,
        "name": "location"
      },
      "setIdx": 5,
      "setId": 1,
      "iconIdx": 1
    },
    {
      "icon": {
        "paths": [
          "M758.922 243.291h36.312c14.525 0 25.418-10.894 25.418-25.418s-10.894-25.418-25.418-25.418h-36.312c-14.525 0-25.418 10.894-25.418 25.418s10.894 25.418 25.418 25.418z",
          "M1122.043 25.418c-10.894-14.525-25.418-25.418-47.206-25.418h-1024c-18.156 0-36.312 10.894-43.574 25.418-7.262 18.156-7.262 36.312 3.631 50.837l432.113 544.681v352.227c0 18.156 10.894 32.681 25.418 43.574 7.262 3.631 14.525 7.262 21.787 7.262 10.894 0 18.156-3.631 29.050-7.262l134.355-94.411c18.156-14.525 29.050-36.312 29.050-61.73v-239.66l432.113-541.050c10.894-14.525 14.525-36.312 7.262-54.468zM642.723 595.518c-3.631 3.631-3.631 7.262-3.631 14.525v246.922c0 7.262-3.631 14.525-10.894 21.787l-134.355 94.411v-363.121c0-7.262-3.631-14.525-10.894-18.156l-279.603-348.596h443.007c14.525 0 25.418-10.894 25.418-25.418s-10.894-25.418-25.418-25.418h-475.688c0 0-3.631 0-3.631 0l-116.199-145.248h1027.631l-435.745 548.312z"
        ],
        "width": 1126,
        "attrs": [
          {},
          {}
        ],
        "isMulticolor": false,
        "isMulticolor2": false,
        "tags": [
          "ICONOS-01"
        ],
        "grid": 14
      },
      "attrs": [
        {},
        {}
      ],
      "properties": {
        "order": 36,
        "id": 0,
        "name": "ICONOS-01",
        "prevSize": 24,
        "code": 59648
      },
      "setIdx": 6,
      "setId": 0,
      "iconIdx": 0
    },
    {
      "icon": {
        "paths": [
          "M512 1024c-283.386 0-512-228.614-512-512s228.614-512 512-512 512 228.614 512 512-228.614 512-512 512zM512 47.628c-257.191 0-464.372 207.181-464.372 464.372s207.181 464.372 464.372 464.372 464.372-207.181 464.372-464.372-207.181-464.372-464.372-464.372z",
          "M650.121 519.144l-180.986 180.986c-11.907 11.907-30.958 11.907-42.865 0s-11.907-30.958 0-42.865l161.935-161.935-161.935-161.935c-11.907-11.907-11.907-30.958 0-42.865s30.958-11.907 42.865 0l180.986 180.986c4.763 4.763 9.526 14.288 9.526 21.433 0 14.288-2.381 21.433-9.526 26.195z"
        ],
        "attrs": [
          {},
          {}
        ],
        "isMulticolor": false,
        "isMulticolor2": false,
        "tags": [
          "ICONOS-02"
        ],
        "grid": 14
      },
      "attrs": [
        {},
        {}
      ],
      "properties": {
        "order": 37,
        "id": 1,
        "name": "ICONOS-02",
        "prevSize": 24,
        "code": 59649
      },
      "setIdx": 6,
      "setId": 0,
      "iconIdx": 1
    },
    {
      "icon": {
        "paths": [
          "M95.573 1024l-95.573-100.124 414.151-414.151-414.151-414.151 95.573-95.573 514.276 509.724z"
        ],
        "width": 610,
        "attrs": [
          {}
        ],
        "isMulticolor": false,
        "isMulticolor2": false,
        "tags": [
          "ICONOS-03"
        ],
        "grid": 14
      },
      "attrs": [
        {}
      ],
      "properties": {
        "order": 38,
        "id": 2,
        "name": "ICONOS-03",
        "prevSize": 24,
        "code": 59650
      },
      "setIdx": 6,
      "setId": 0,
      "iconIdx": 2
    },
    {
      "icon": {
        "paths": [
          "M92.383 200.348c8.904 0 16.696-7.791 16.696-16.696v-151.374h648.904v151.374c0 8.904 7.791 16.696 16.696 16.696s16.696-7.791 16.696-16.696v-166.957c-1.113-8.904-8.904-16.696-17.809-16.696h-681.183c-8.904 0-15.583 7.791-15.583 16.696v166.957c0 8.904 6.678 16.696 15.583 16.696z",
          "M790.261 632.209v-209.252c0-8.904-7.791-16.696-16.696-16.696s-16.696 7.791-16.696 16.696v207.026h-52.313v-256h134.678c8.904 0 16.696-7.791 16.696-16.696v-109.078c0-8.904-7.791-16.696-16.696-16.696h-134.678v-48.974c0-8.904-7.791-16.696-16.696-16.696h-509.774c-8.904 0-16.696 7.791-16.696 16.696v48.974h-134.678c-8.904 0-16.696 7.791-16.696 16.696v109.078c0 8.904 7.791 16.696 16.696 16.696h134.678v256h-52.313v-207.026c0-8.904-7.791-16.696-16.696-16.696s-15.583 7.791-15.583 16.696v209.252c-43.409 7.791-76.8 45.635-76.8 91.27v173.635c0 8.904 7.791 15.583 16.696 15.583h5.565v94.609c0 8.904 6.678 16.696 15.583 16.696h140.243c8.904 0 16.696-7.791 16.696-16.696v-45.635c0-8.904-7.791-16.696-16.696-16.696s-16.696 7.791-16.696 16.696v28.939h-106.852v-77.913h757.983v77.913h-106.852v-28.939c0-8.904-7.791-16.696-16.696-16.696s-16.696 7.791-16.696 16.696v45.635c0 8.904 7.791 16.696 16.696 16.696h140.243c8.904 0 16.696-7.791 16.696-16.696v-94.609h5.565c8.904 0 16.696-7.791 16.696-16.696v-172.522c-1.113-45.635-34.504-83.478-77.913-91.27zM773.565 663.374c33.391 0 60.104 26.713 60.104 60.104v70.122h-129.113v-130.226h69.009zM833.67 880.417h-801.391v-54.539h801.391v54.539zM194.783 373.983h477.496v418.504h-477.496v-418.504zM822.539 341.704h-32.278v-76.8h32.278v76.8zM757.983 266.017v76.8h-52.313v-76.8h52.313zM672.278 341.704h-222.609v-141.357h222.609v141.357zM194.783 200.348h222.609v141.357h-222.609v-141.357zM161.391 341.704h-52.313v-76.8h52.313v76.8zM43.409 266.017h32.278v76.8h-32.278v-76.8zM92.383 663.374h69.009v129.113h-129.113v-69.009c0-33.391 27.826-60.104 60.104-60.104z",
          "M243.757 564.313h379.548c8.904 0 16.696-7.791 16.696-16.696 0-51.2-41.183-92.383-92.383-92.383h-228.174c-51.2 0-92.383 41.183-92.383 92.383 0 8.904 7.791 16.696 16.696 16.696zM319.443 488.626h227.061c27.826 0 50.087 18.922 57.878 43.409h-342.817c7.791-25.6 31.165-43.409 57.878-43.409z",
          "M623.304 596.591h-379.548c-8.904 0-16.696 7.791-16.696 16.696s7.791 16.696 16.696 16.696h379.548c8.904 0 16.696-7.791 16.696-16.696s-7.791-16.696-16.696-16.696z",
          "M623.304 662.261h-379.548c-8.904 0-16.696 7.791-16.696 16.696s7.791 16.696 16.696 16.696h379.548c8.904 0 16.696-7.791 16.696-16.696s-7.791-16.696-16.696-16.696z",
          "M623.304 727.93h-379.548c-8.904 0-16.696 7.791-16.696 16.696s7.791 16.696 16.696 16.696h379.548c8.904 0 16.696-7.791 16.696-16.696s-7.791-16.696-16.696-16.696z"
        ],
        "width": 867,
        "attrs": [
          {},
          {},
          {},
          {},
          {},
          {}
        ],
        "isMulticolor": false,
        "isMulticolor2": false,
        "tags": [
          "ICONOS-04"
        ],
        "grid": 14
      },
      "attrs": [
        {},
        {},
        {},
        {},
        {},
        {}
      ],
      "properties": {
        "order": 39,
        "id": 3,
        "name": "ICONOS-04",
        "prevSize": 24,
        "code": 59651
      },
      "setIdx": 6,
      "setId": 0,
      "iconIdx": 3
    },
    {
      "icon": {
        "paths": [
          "M512 0c-283.307 0-512 228.693-512 512s228.693 512 512 512 512-228.693 512-512-228.693-512-512-512zM512 986.453c-262.827 0-474.453-211.627-474.453-474.453s211.627-474.453 474.453-474.453 474.453 211.627 474.453 474.453-211.627 474.453-474.453 474.453z",
          "M730.453 293.547h-436.907c-10.24 0-20.48 6.827-20.48 17.067s6.827 17.067 17.067 17.067h440.32c10.24 0 17.067-6.827 17.067-17.067s-6.827-17.067-17.067-17.067z",
          "M730.453 494.933h-436.907c-10.24 0-20.48 6.827-20.48 17.067s6.827 17.067 17.067 17.067h440.32c10.24 0 17.067-6.827 17.067-17.067s-6.827-17.067-17.067-17.067z",
          "M730.453 696.32h-436.907c-10.24 0-17.067 6.827-17.067 17.067s6.827 17.067 17.067 17.067h440.32c10.24 0 17.067-6.827 17.067-17.067s-10.24-17.067-20.48-17.067z"
        ],
        "attrs": [
          {},
          {},
          {},
          {}
        ],
        "isMulticolor": false,
        "isMulticolor2": false,
        "tags": [
          "ICONOS-05"
        ],
        "grid": 14
      },
      "attrs": [
        {},
        {},
        {},
        {}
      ],
      "properties": {
        "order": 40,
        "id": 4,
        "name": "ICONOS-05",
        "prevSize": 24,
        "code": 59652
      },
      "setIdx": 6,
      "setId": 0,
      "iconIdx": 4
    },
    {
      "icon": {
        "paths": [
          "M724.992 0h-425.984c-40.96 0-73.728 32.768-73.728 73.728v872.448c0 40.96 32.768 73.728 73.728 73.728h430.080c40.96 0 73.728-32.768 73.728-73.728v-872.448c0-40.96-32.768-73.728-77.824-73.728zM253.952 135.168h512v647.168h-512v-647.168zM299.008 32.768h430.080c24.576 0 40.96 16.384 40.96 40.96v28.672h-516.096v-28.672c0-20.48 20.48-40.96 45.056-40.96zM724.992 991.232h-425.984c-24.576 0-40.96-16.384-40.96-40.96v-131.072h512v131.072c-4.096 20.48-20.48 40.96-45.056 40.96z",
          "M512 835.584c-36.864 0-69.632 28.672-69.632 69.632 0 36.864 28.672 69.632 69.632 69.632 36.864 0 69.632-28.672 69.632-69.632 0-36.864-32.768-69.632-69.632-69.632zM512 937.984c-20.48 0-32.768-16.384-32.768-32.768 0-20.48 16.384-32.768 32.768-32.768s32.768 16.384 32.768 32.768c0 16.384-12.288 32.768-32.768 32.768z",
          "M442.368 86.016h69.632c8.192 0 16.384-8.192 16.384-16.384s-8.192-16.384-16.384-16.384h-69.632c-8.192 0-16.384 8.192-16.384 16.384s8.192 16.384 16.384 16.384z",
          "M561.152 86.016h16.384c8.192 0 16.384-8.192 16.384-16.384s-8.192-16.384-16.384-16.384h-16.384c-8.192 0-16.384 8.192-16.384 16.384s8.192 16.384 16.384 16.384z",
          "M966.656 77.824c-8.192-8.192-16.384-8.192-24.576 0s-8.192 16.384 0 24.576c65.536 65.536 65.536 167.936 0 229.376-8.192 8.192-8.192 16.384 0 24.576 4.096 4.096 8.192 4.096 12.288 4.096s8.192 0 12.288-4.096c77.824-77.824 77.824-200.704 0-278.528z",
          "M892.928 118.784c-8.192-8.192-16.384-8.192-24.576 0s-8.192 16.384 0 24.576c24.576 20.48 32.768 45.056 32.768 77.824s-12.288 57.344-32.768 77.824c-8.192 8.192-8.192 16.384 0 24.576 4.096 4.096 8.192 4.096 12.288 4.096s8.192 0 12.288-4.096c28.672-28.672 40.96-65.536 40.96-102.4s-12.288-77.824-40.96-102.4z",
          "M81.92 102.4c8.192-8.192 8.192-16.384 0-24.576s-16.384-8.192-24.576 0c-77.824 77.824-77.824 200.704 0 278.528 4.096 4.096 8.192 4.096 12.288 4.096s8.192 0 12.288-4.096c8.192-8.192 8.192-16.384 0-24.576-65.536-61.44-65.536-163.84 0-229.376z",
          "M155.648 110.592c-8.192-8.192-16.384-8.192-24.576 0-28.672 28.672-40.96 65.536-40.96 102.4s16.384 73.728 40.96 102.4c4.096 4.096 8.192 4.096 12.288 4.096s8.192 0 12.288-4.096c8.192-8.192 8.192-16.384 0-24.576-24.576-16.384-32.768-45.056-32.768-73.728s12.288-57.344 32.768-77.824c4.096-8.192 4.096-20.48 0-28.672z"
        ],
        "attrs": [
          {},
          {},
          {},
          {},
          {},
          {},
          {},
          {}
        ],
        "isMulticolor": false,
        "isMulticolor2": false,
        "tags": [
          "ICONOS-06"
        ],
        "grid": 14
      },
      "attrs": [
        {},
        {},
        {},
        {},
        {},
        {},
        {},
        {}
      ],
      "properties": {
        "order": 41,
        "id": 5,
        "name": "ICONOS-06",
        "prevSize": 24,
        "code": 59653
      },
      "setIdx": 6,
      "setId": 0,
      "iconIdx": 5
    },
    {
      "icon": {
        "paths": [
          "M946.176 1024h-929.792c-8.192 0-16.384-8.192-16.384-16.384v-589.824c0-8.192 4.096-12.288 12.288-16.384 4.096-4.096 12.288 0 16.384 4.096l319.488 290.816h274.432l311.296-290.816c4.096-4.096 12.288-4.096 16.384-4.096 4.096 4.096 8.192 8.192 8.192 16.384v589.824c4.096 8.192-4.096 16.384-12.288 16.384zM32.768 991.232h892.928v-536.576l-290.816 270.336c-4.096 4.096-8.192 4.096-12.288 4.096h-286.72c-4.096 0-8.192 0-12.288-4.096l-294.912-270.336v536.576z",
          "M946.176 1024c-4.096 0-8.192 0-12.288-4.096l-319.488-290.816c-8.192-4.096-8.192-16.384 0-24.576 4.096-8.192 16.384-8.192 24.576 0l319.488 290.816c8.192 4.096 8.192 16.384 0 24.576-4.096 0-8.192 4.096-12.288 4.096z",
          "M16.384 1024c-4.096 0-8.192 0-12.288-4.096-4.096-8.192-4.096-16.384 0-24.576l323.584-290.816c8.192-4.096 16.384-4.096 24.576 0 4.096 8.192 4.096 16.384 0 24.576l-323.584 290.816c-4.096 0-8.192 4.096-12.288 4.096z",
          "M131.072 540.672c-8.192 0-16.384-8.192-16.384-16.384v-372.736c0-28.672 24.576-53.248 53.248-53.248h630.784c28.672 0 53.248 24.576 53.248 53.248v372.736c0 8.192-8.192 16.384-16.384 16.384s-16.384-8.192-16.384-16.384v-372.736c0-8.192-8.192-16.384-16.384-16.384h-634.88c-8.192 0-16.384 8.192-16.384 16.384v372.736c-4.096 8.192-8.192 16.384-20.48 16.384z",
          "M946.176 434.176c-4.096 0-8.192 0-12.288-4.096l-114.688-98.304c-8.192-4.096-8.192-16.384 0-24.576 4.096-8.192 16.384-8.192 24.576 0l114.688 98.304c8.192 4.096 8.192 16.384 0 24.576-4.096 4.096-8.192 4.096-12.288 4.096z",
          "M368.64 135.168c-4.096 0-8.192 0-12.288-4.096-8.192-8.192-8.192-20.48 0-24.576l114.688-102.4c8.192-4.096 16.384-4.096 20.48 0l114.688 102.4c8.192 4.096 8.192 16.384 0 24.576-4.096 8.192-16.384 8.192-24.576 0l-106.496-90.112-98.304 90.112c0 0-4.096 4.096-8.192 4.096z",
          "M20.48 434.176c-4.096 0-8.192 0-12.288-4.096-8.192-8.192-8.192-16.384 0-24.576l114.688-98.304c8.192-4.096 16.384-4.096 24.576 0 4.096 8.192 4.096 16.384 0 24.576l-114.688 98.304c-8.192 4.096-12.288 4.096-12.288 4.096z",
          "M733.184 290.816h-499.712c-8.192 0-16.384-8.192-16.384-16.384s8.192-16.384 16.384-16.384h499.712c8.192 0 16.384 8.192 16.384 16.384s-8.192 16.384-16.384 16.384z",
          "M733.184 413.696h-499.712c-8.192 0-16.384-8.192-16.384-16.384s8.192-16.384 16.384-16.384h499.712c8.192 0 16.384 8.192 16.384 16.384s-8.192 16.384-16.384 16.384z",
          "M733.184 528.384h-499.712c-8.192 0-16.384-8.192-16.384-16.384s8.192-16.384 16.384-16.384h499.712c8.192 0 16.384 8.192 16.384 16.384 0 12.288-8.192 16.384-16.384 16.384z"
        ],
        "width": 963,
        "attrs": [
          {},
          {},
          {},
          {},
          {},
          {},
          {},
          {},
          {},
          {}
        ],
        "isMulticolor": false,
        "isMulticolor2": false,
        "tags": [
          "ICONOS-07"
        ],
        "grid": 14
      },
      "attrs": [
        {},
        {},
        {},
        {},
        {},
        {},
        {},
        {},
        {},
        {}
      ],
      "properties": {
        "order": 42,
        "id": 6,
        "name": "ICONOS-07",
        "prevSize": 24,
        "code": 59654
      },
      "setIdx": 6,
      "setId": 0,
      "iconIdx": 6
    },
    {
      "icon": {
        "paths": [
          "M999.176 24.824v0c-31.030-31.030-80.679-31.030-111.709 0l-322.715 322.715c-31.030 31.030-80.679 31.030-111.709 0l-322.715-322.715c-31.030-31.030-80.679-31.030-111.709 0v0c-31.030 31.030-31.030 80.679 0 111.709l322.715 322.715c31.030 31.030 31.030 80.679 0 111.709l-322.715 322.715c-31.030 31.030-31.030 80.679 0 111.709v0c31.030 31.030 80.679 31.030 111.709 0l322.715-322.715c31.030-31.030 80.679-31.030 111.709 0l322.715 322.715c31.030 31.030 80.679 31.030 111.709 0v0c31.030-31.030 31.030-80.679 0-111.709l-322.715-322.715c-31.030-31.030-31.030-80.679 0-111.709l322.715-322.715c31.030-37.236 31.030-80.679 0-111.709z"
        ],
        "attrs": [
          {}
        ],
        "isMulticolor": false,
        "isMulticolor2": false,
        "tags": [
          "ICONOS-08"
        ],
        "grid": 14
      },
      "attrs": [
        {}
      ],
      "properties": {
        "order": 43,
        "id": 7,
        "name": "ICONOS-08",
        "prevSize": 24,
        "code": 59655
      },
      "setIdx": 6,
      "setId": 0,
      "iconIdx": 7
    },
    {
      "icon": {
        "paths": [
          "M804.571 708.571q0 15.429-5.714 40.286t-12 39.143q-12 28.571-69.714 60.571-53.714 29.143-106.286 29.143-15.429 0-30-2t-32.857-7.143-27.143-8.286-31.714-11.714-28-10.286q-56-20-100-47.429-73.143-45.143-151.143-123.143t-123.143-151.143q-27.429-44-47.429-100-1.714-5.143-10.286-28t-11.714-31.714-8.286-27.143-7.143-32.857-2-30q0-52.571 29.143-106.286 32-57.714 60.571-69.714 14.286-6.286 39.143-12t40.286-5.714q8 0 12 1.714 10.286 3.429 30.286 43.429 6.286 10.857 17.143 30.857t20 36.286 17.714 30.571q1.714 2.286 10 14.286t12.286 20.286 4 16.286q0 11.429-16.286 28.571t-35.429 31.429-35.429 30.286-16.286 26.286q0 5.143 2.857 12.857t4.857 11.714 8 13.714 6.571 10.857q43.429 78.286 99.429 134.286t134.286 99.429q1.143 0.571 10.857 6.571t13.714 8 11.714 4.857 12.857 2.857q10.286 0 26.286-16.286t30.286-35.429 31.429-35.429 28.571-16.286q8 0 16.286 4t20.286 12.286 14.286 10q14.286 8.571 30.571 17.714t36.286 20 30.857 17.143q40 20 43.429 30.286 1.714 4 1.714 12z"
        ],
        "width": 805,
        "attrs": [
          {
            "fill": "rgb(68, 68, 68)"
          }
        ],
        "isMulticolor": false,
        "isMulticolor2": false,
        "colorPermutations": {
          "6868681": [
            {
              "f": 0
            }
          ]
        },
        "tags": [
          "phone"
        ],
        "grid": 14
      },
      "attrs": [
        {
          "fill": "rgb(68, 68, 68)"
        }
      ],
      "properties": {
        "order": 44,
        "id": 8,
        "prevSize": 24,
        "code": 58890,
        "name": "phone"
      },
      "setIdx": 6,
      "setId": 0,
      "iconIdx": 8
    },
    {
      "icon": {
        "paths": [
          "M731.429 512q0-21.143-17.143-30.857l-292.571-182.857q-17.714-11.429-37.143-1.143-18.857 10.286-18.857 32v365.714q0 21.714 18.857 32 9.143 4.571 17.714 4.571 11.429 0 19.429-5.714l292.571-182.857q17.143-9.714 17.143-30.857zM1024 512q0 54.857-0.571 85.714t-4.857 78-12.857 84.286q-9.143 41.714-39.429 70.286t-70.857 33.143q-126.857 14.286-383.429 14.286t-383.429-14.286q-40.571-4.571-71.143-33.143t-39.714-70.286q-8-37.143-12.286-84.286t-4.857-78-0.571-85.714 0.571-85.714 4.857-78 12.857-84.286q9.143-41.714 39.429-70.286t70.857-33.143q126.857-14.286 383.429-14.286t383.429 14.286q40.571 4.571 71.143 33.143t39.714 70.286q8 37.143 12.286 84.286t4.857 78 0.571 85.714z"
        ],
        "attrs": [
          {}
        ],
        "isMulticolor": false,
        "isMulticolor2": false,
        "tags": [
          "youtube-play"
        ],
        "grid": 14
      },
      "attrs": [
        {}
      ],
      "properties": {
        "order": 45,
        "id": 9,
        "prevSize": 24,
        "code": 58881,
        "name": "youtube"
      },
      "setIdx": 6,
      "setId": 0,
      "iconIdx": 9
    }
  ],
  "height": 1024,
  "metadata": {
    "name": "icomoon"
  },
  "preferences": {
    "showGlyphs": true,
    "showQuickUse": true,
    "showQuickUse2": true,
    "showSVGs": true,
    "fontPref": {
      "prefix": "icon-",
      "metadata": {
        "fontFamily": "icomoon",
        "majorVersion": 1,
        "minorVersion": 0
      },
      "metrics": {
        "emSize": 1024,
        "baseline": 6.25,
        "whitespace": 50
      },
      "ie7": false,
      "showSelector": false,
      "showMetrics": false,
      "showMetadata": false,
      "showVersion": false,
      "resetPoint": 58880,
      "embed": false
    },
    "imagePref": {
      "prefix": "icon-",
      "png": true,
      "useClassSelector": true,
      "color": 4473924,
      "bgColor": 16777215
    },
    "historySize": 100,
    "showCodes": true,
    "showLiga": false,
    "gridSize": 16
  }
}